--b0 khai báo username và gmail : chỉ làm một lần trên máy 
--b1 tạo repo local: mỗi dự án làm 1 lần
-- b2 tao repo local mỗi dự án 1 lần
-- b3 kết nối local và remote  

-- nếu xong chỗ master thì vào trang chủ bấm crtl + R
********************************************

--để xem các branch hiện có :  git branch
-- Tạo nhánh mới từ nhánh hiện tại: git checkout -b branchname(tên branch)
-- chuyển nhánh : git checkout branchname
--feature/login/tis25 : rẻ nhánh ở tính năng  login
--fixel/login: edit bug  dòng code nhánh login

-- merge code tù nhánh A vào nhánh hiện tại : git merge A 
--  git stash(đưa code lại lần comit cuối cùng -lần chạy đc- và mất đi code hiện tại đang code) 
              và git stash pop(quay lại code đã mất ) 
--
--clone dự án: git clone url
********************************************************************************
-- git init : khởi tạo repository (chỉ 1 lần đầu)
-- git remote add orgin : tao repo local và repo  remote thông qua url 
--push code to remote : 3 buocS
            */ A : là all */
          b1 git add -A
          b2 git commit -m "title"(commit lưu lại )
          /* master là branch là nhánh*/
          b3 lần đầu git push -u origin master 
          ++ lần 2 trở đi git push